{
  "name": "Cardano USD",
  "symbol_safe": "adausd",
  "symbol_full": "ADA-USD",
  "symbol_icon_url": "https://s.yimg.com/uc/finance/assets/ada.png",
  "snapshots": [
    {
      "ID": 1,
      "dateCreated": "2018-06-28 14:17:26",
      "price": 0.1252,
      "change": -0.0019,
      "pChange": -1.49,
      "marketCap": 3246000000,
      "volume": 168324,
      "volume24h": 391542,
      "totalVolume24h": 36299000,
      "circulatingSupply": 25927000000
    },
    {
      "ID": 2,
      "dateCreated": "2018-06-29 00:00:22",
      "price": 0.1185,
      "change": -0.0086,
      "pChange": -6.77,
      "marketCap": 3072000000,
      "volume": 485619,
      "volume24h": 484034,
      "totalVolume24h": 41957000,
      "circulatingSupply": 25927000000
    },
    {
      "ID": 3,
      "dateCreated": "2018-06-30 00:00:19",
      "price": 0.1247,
      "change": 0,
      "pChange": 0,
      "marketCap": 3233000000,
      "volume": 0,
      "volume24h": 928430,
      "totalVolume24h": 63538000,
      "circulatingSupply": 25927000000
    },
    {
      "ID": 4,
      "dateCreated": "2018-07-01 00:00:19",
      "price": 0.1385,
      "change": 0.0138,
      "pChange": 11.07,
      "marketCap": 3591000000,
      "volume": 1699000,
      "volume24h": 1695000,
      "totalVolume24h": 88961000,
      "circulatingSupply": 25927000000
    },
    {
      "ID": 5,
      "dateCreated": "2018-07-02 00:00:18",
      "price": 0.1425,
      "change": 0.004,
      "pChange": 2.89,
      "marketCap": 3695000000,
      "volume": 926590,
      "volume24h": 921143,
      "totalVolume24h": 91221000,
      "circulatingSupply": 25927000000
    },
    {
      "ID": 6,
      "dateCreated": "2018-07-03 00:00:08",
      "price": 0.1535,
      "change": 0.011,
      "pChange": 7.72,
      "marketCap": 3980000000,
      "volume": 2372000,
      "volume24h": 2368000,
      "totalVolume24h": 110816000,
      "circulatingSupply": 25927000000
    },
    {
      "ID": 7,
      "dateCreated": "2018-07-04 00:00:19",
      "price": 0.1498,
      "change": 0,
      "pChange": 0,
      "marketCap": 3884000000,
      "volume": 0,
      "volume24h": 1621000,
      "totalVolume24h": 100430000,
      "circulatingSupply": 25927000000
    },
    {
      "ID": 8,
      "dateCreated": "2018-07-07 04:37:30",
      "price": 0.1427,
      "change": -0.0019,
      "pChange": -1.31,
      "marketCap": 3700000000,
      "volume": 81151,
      "volume24h": 943748,
      "totalVolume24h": 60500000,
      "circulatingSupply": 25927000000
    },
    {
      "ID": 9,
      "dateCreated": "2018-07-08 00:00:13",
      "price": 0.1485,
      "change": 0.0039,
      "pChange": 2.7,
      "marketCap": 3850000000,
      "volume": 643349,
      "volume24h": 639858,
      "totalVolume24h": 48833000,
      "circulatingSupply": 25927000000
    },
    {
      "ID": 10,
      "dateCreated": "2018-07-09 00:00:09",
      "price": 0.1451,
      "change": -0.0034,
      "pChange": -2.29,
      "marketCap": 3762000000,
      "volume": 653821,
      "volume24h": 643210,
      "totalVolume24h": 48654000,
      "circulatingSupply": 25927000000
    },
    {
      "ID": 11,
      "dateCreated": "2018-07-10 00:00:09",
      "price": 0.1392,
      "change": -0.0059,
      "pChange": -4.07,
      "marketCap": 3609000000,
      "volume": 554619,
      "volume24h": 554470,
      "totalVolume24h": 42454000,
      "circulatingSupply": 25927000000
    },
    {
      "ID": 12,
      "dateCreated": "2018-07-11 00:00:07",
      "price": 0.128,
      "change": -0.011,
      "pChange": -8.05,
      "marketCap": 3319000000,
      "volume": 1602000,
      "volume24h": 1587000,
      "totalVolume24h": 57799000,
      "circulatingSupply": 25927000000
    },
    {
      "ID": 13,
      "dateCreated": "2018-07-12 00:00:07",
      "price": 0.1308,
      "change": 0.0028,
      "pChange": 2.19,
      "marketCap": 3391000000,
      "volume": 657299,
      "volume24h": 654955,
      "totalVolume24h": 50049000,
      "circulatingSupply": 25927000000
    },
    {
      "ID": 14,
      "dateCreated": "2018-07-14 14:20:36",
      "price": 0.135532,
      "change": -0.002687,
      "pChange": -1.94,
      "marketCap": 3514000000,
      "volume": 0,
      "volume24h": 0,
      "totalVolume24h": 91481000,
      "circulatingSupply": 25927000000
    },
    {
      "ID": 15,
      "dateCreated": "2018-07-15 00:00:07",
      "price": 0.137037,
      "change": -0.00163,
      "pChange": -1.18,
      "marketCap": 3553000000,
      "volume": 0,
      "volume24h": 0,
      "totalVolume24h": 56178000,
      "circulatingSupply": 25927000000
    },
    {
      "ID": 16,
      "dateCreated": "2018-07-16 00:00:07",
      "price": 0.142691,
      "change": 0.0035,
      "pChange": 2.51,
      "marketCap": 3700000000,
      "volume": 0,
      "volume24h": 0,
      "totalVolume24h": 51609000,
      "circulatingSupply": 25927000000
    },
    {
      "ID": 17,
      "dateCreated": "2018-07-17 00:00:07",
      "price": 0.157345,
      "change": 0.006202,
      "pChange": 4.1,
      "marketCap": 4078999999.9999995,
      "volume": 0,
      "volume24h": 0,
      "totalVolume24h": 89505000,
      "circulatingSupply": 25927000000
    },
    {
      "ID": 18,
      "dateCreated": "2018-07-18 00:00:06",
      "price": 0.17167,
      "change": 0.000953,
      "pChange": 0.56,
      "marketCap": 4451000000,
      "volume": 0,
      "volume24h": 0,
      "totalVolume24h": 131217999.99999999,
      "circulatingSupply": 25927000000
    },
    {
      "ID": 19,
      "dateCreated": "2018-07-20 00:00:08",
      "price": 0.181789,
      "change": 0.005436,
      "pChange": 3.08,
      "marketCap": 4713000000,
      "volume": 0,
      "volume24h": 0,
      "totalVolume24h": 177209000,
      "circulatingSupply": 25927000000
    },
    {
      "ID": 20,
      "dateCreated": "2018-07-21 00:00:08",
      "price": 0.161083,
      "change": -0.013064,
      "pChange": -7.5,
      "marketCap": 4176000000,
      "volume": 0,
      "volume24h": 0,
      "totalVolume24h": 168040000,
      "circulatingSupply": 25927000000
    },
    {
      "ID": 21,
      "dateCreated": "2018-07-22 00:00:08",
      "price": 0.163623,
      "change": 0.000741,
      "pChange": 0.45,
      "marketCap": 4242000000,
      "volume": 0,
      "volume24h": 0,
      "totalVolume24h": 114984000,
      "circulatingSupply": 25927000000
    },
    {
      "ID": 22,
      "dateCreated": "2018-07-23 00:00:24",
      "price": 0.169321,
      "change": 0,
      "pChange": 0,
      "marketCap": 4390000000,
      "volume": 0,
      "volume24h": 0,
      "totalVolume24h": 112526000,
      "circulatingSupply": 25927000000
    },
    {
      "ID": 23,
      "dateCreated": "2018-07-24 00:00:37",
      "price": 0.164162,
      "change": -0.000077,
      "pChange": -0.05,
      "marketCap": 4256000000,
      "volume": 0,
      "volume24h": 0,
      "totalVolume24h": 124952000,
      "circulatingSupply": 25927000000
    },
    {
      "ID": 24,
      "dateCreated": "2018-07-25 00:00:12",
      "price": 0.17367,
      "change": -0.005212,
      "pChange": -2.91,
      "marketCap": 4503000000,
      "volume": 0,
      "volume24h": 0,
      "totalVolume24h": 166270000,
      "circulatingSupply": 25927000000
    },
    {
      "ID": 25,
      "dateCreated": "2018-07-26 00:00:32",
      "price": 0.17246,
      "change": 0.00198,
      "pChange": 1.16,
      "marketCap": 4471000000,
      "volume": 0,
      "volume24h": 0,
      "totalVolume24h": 117462000,
      "circulatingSupply": 25927000000
    },
    {
      "ID": 26,
      "dateCreated": "2018-07-27 00:00:05",
      "price": 0.164221,
      "change": -0.003413,
      "pChange": -2.04,
      "marketCap": 4258000000,
      "volume": 0,
      "volume24h": 0,
      "totalVolume24h": 80954000,
      "circulatingSupply": 25927000000
    },
    {
      "ID": 27,
      "dateCreated": "2018-07-28 00:00:23",
      "price": 0.165949,
      "change": -0.003355,
      "pChange": -1.98,
      "marketCap": 4303000000,
      "volume": 0,
      "volume24h": 0,
      "totalVolume24h": 99032000,
      "circulatingSupply": 25927000000
    },
    {
      "ID": 28,
      "dateCreated": "2018-07-29 00:00:20",
      "price": 0.164205,
      "change": -0.0028,
      "pChange": -1.68,
      "marketCap": 4256999999.9999995,
      "volume": 0,
      "volume24h": 0,
      "totalVolume24h": 52568000,
      "circulatingSupply": 25927000000
    },
    {
      "ID": 29,
      "dateCreated": "2018-07-30 00:00:12",
      "price": 0.162692,
      "change": -0.00115,
      "pChange": -0.7,
      "marketCap": 4218000000,
      "volume": 0,
      "volume24h": 0,
      "totalVolume24h": 47372000,
      "circulatingSupply": 25927000000
    },
    {
      "ID": 30,
      "dateCreated": "2018-07-31 00:00:31",
      "price": 0.153302,
      "change": 0,
      "pChange": 0,
      "marketCap": 3975000000,
      "volume": 0,
      "volume24h": 0,
      "totalVolume24h": 66721000,
      "circulatingSupply": 25927000000
    },
    {
      "ID": 31,
      "dateCreated": "2018-08-01 00:00:04",
      "price": 0.141708,
      "change": -0.003326,
      "pChange": -2.29,
      "marketCap": 3674000000,
      "volume": 0,
      "volume24h": 0,
      "totalVolume24h": 91269000,
      "circulatingSupply": 25927000000
    },
    {
      "ID": 32,
      "dateCreated": "2018-08-02 00:00:21",
      "price": 0.139942,
      "change": 0,
      "pChange": 0,
      "marketCap": 3628000000,
      "volume": 0,
      "volume24h": 0,
      "totalVolume24h": 74559000,
      "circulatingSupply": 25927000000
    },
    {
      "ID": 33,
      "dateCreated": "2018-08-03 00:00:38",
      "price": 0.130797,
      "change": -0.000075,
      "pChange": -0.06,
      "marketCap": 3391000000,
      "volume": 0,
      "volume24h": 0,
      "totalVolume24h": 62649000,
      "circulatingSupply": 25927000000
    },
    {
      "ID": 34,
      "dateCreated": "2018-08-04 00:00:13",
      "price": 0.129527,
      "change": 0.000742,
      "pChange": 0.58,
      "marketCap": 3358000000,
      "volume": 0,
      "volume24h": 0,
      "totalVolume24h": 79134000,
      "circulatingSupply": 25927000000
    },
    {
      "ID": 35,
      "dateCreated": "2018-08-05 00:00:31",
      "price": 0.126452,
      "change": 0,
      "pChange": 0,
      "marketCap": 3279000000,
      "volume": 0,
      "volume24h": 0,
      "totalVolume24h": 53136000,
      "circulatingSupply": 25927000000
    },
    {
      "ID": 36,
      "dateCreated": "2018-08-06 00:00:40",
      "price": 0.130584,
      "change": 0,
      "pChange": 0,
      "marketCap": 3386000000,
      "volume": 0,
      "volume24h": 0,
      "totalVolume24h": 44017000,
      "circulatingSupply": 25927000000
    },
    {
      "ID": 37,
      "dateCreated": "2018-08-07 00:00:06",
      "price": 0.129748,
      "change": 0.000903,
      "pChange": 0.7,
      "marketCap": 3364000000,
      "volume": 0,
      "volume24h": 0,
      "totalVolume24h": 53347000,
      "circulatingSupply": 25927000000
    },
    {
      "ID": 38,
      "dateCreated": "2018-08-08 00:00:18",
      "price": 0.123751,
      "change": -0.001815,
      "pChange": -1.45,
      "marketCap": 3209000000,
      "volume": 0,
      "volume24h": 0,
      "totalVolume24h": 55326000,
      "circulatingSupply": 25927000000
    },
    {
      "ID": 39,
      "dateCreated": "2018-08-09 00:00:32",
      "price": 0.112892,
      "change": 0.000126,
      "pChange": 0.11,
      "marketCap": 2927000000,
      "volume": 0,
      "volume24h": 0,
      "totalVolume24h": 70220000,
      "circulatingSupply": 25927000000
    },
    {
      "ID": 40,
      "dateCreated": "2018-08-10 00:00:04",
      "price": 0.122252,
      "change": 0.004906,
      "pChange": 4.18,
      "marketCap": 3170000000,
      "volume": 0,
      "volume24h": 0,
      "totalVolume24h": 82578000,
      "circulatingSupply": 25927000000
    },
    {
      "ID": 41,
      "dateCreated": "2018-08-11 00:00:23",
      "price": 0.115008,
      "change": 0,
      "pChange": 0,
      "marketCap": 2982000000,
      "volume": 0,
      "volume24h": 0,
      "totalVolume24h": 65137000,
      "circulatingSupply": 25927000000
    },
    {
      "ID": 42,
      "dateCreated": "2018-11-01 17:47:50",
      "price": 0.07005,
      "change": 0.00007,
      "pChange": 0.1,
      "marketCap": 1816000000,
      "volume": 24795,
      "volume24h": 35978,
      "totalVolume24h": 11273000,
      "circulatingSupply": 25927000000
    },
    {
      "ID": 43,
      "dateCreated": "2018-11-02 00:00:12",
      "price": 0.07172,
      "change": 0,
      "pChange": 0,
      "marketCap": 1859000000,
      "volume": 0,
      "volume24h": 55214,
      "totalVolume24h": 12545000,
      "circulatingSupply": 25927000000
    },
    {
      "ID": 44,
      "dateCreated": "2018-11-03 00:00:12",
      "price": 0.07307,
      "change": 0.00135,
      "pChange": 1.88,
      "marketCap": 1894000000,
      "volume": 120586,
      "volume24h": 97625,
      "totalVolume24h": 20622000,
      "circulatingSupply": 25927000000
    },
    {
      "ID": 45,
      "dateCreated": "2018-11-04 00:00:09",
      "price": 0.07273,
      "change": -0.00034,
      "pChange": -0.47,
      "marketCap": 1886000000,
      "volume": 100979,
      "volume24h": 99165,
      "totalVolume24h": 16383000,
      "circulatingSupply": 25927000000
    },
    {
      "ID": 46,
      "dateCreated": "2018-11-05 00:00:19",
      "price": 0.07775,
      "change": 0.00502,
      "pChange": 6.9,
      "marketCap": 2016000000,
      "volume": 487929,
      "volume24h": 487680,
      "totalVolume24h": 57619000,
      "circulatingSupply": 25927000000
    },
    {
      "ID": 47,
      "dateCreated": "2018-11-06 00:00:42",
      "price": 0.0765,
      "change": 0.0002,
      "pChange": 0.21,
      "marketCap": 1983000000,
      "volume": 167,
      "volume24h": 191809,
      "totalVolume24h": 35376000,
      "circulatingSupply": 25927000000
    },
    {
      "ID": 48,
      "dateCreated": "2018-11-07 00:00:15",
      "price": 0.08078,
      "change": 0.00444,
      "pChange": 5.82,
      "marketCap": 2093999999.9999998,
      "volume": 338248,
      "volume24h": 331998,
      "totalVolume24h": 54883000,
      "circulatingSupply": 25927000000
    },
    {
      "ID": 49,
      "dateCreated": "2018-11-08 00:00:14",
      "price": 0.07862,
      "change": -0.00216,
      "pChange": -2.67,
      "marketCap": 2037999999.9999998,
      "volume": 287187,
      "volume24h": 285905,
      "totalVolume24h": 40586000,
      "circulatingSupply": 25927000000
    },
    {
      "ID": 50,
      "dateCreated": "2018-11-09 00:00:08",
      "price": 0.07627,
      "change": -0.00235,
      "pChange": -2.99,
      "marketCap": 1977000000,
      "volume": 295978,
      "volume24h": 295846,
      "totalVolume24h": 32868000.000000004,
      "circulatingSupply": 25927000000
    },
    {
      "ID": 51,
      "dateCreated": "2018-11-10 00:00:20",
      "price": 0.07414,
      "change": 0,
      "pChange": 0,
      "marketCap": 1922000000,
      "volume": 0,
      "volume24h": 195807,
      "totalVolume24h": 25400000,
      "circulatingSupply": 25927000000
    },
    {
      "ID": 52,
      "dateCreated": "2018-11-11 00:00:16",
      "price": 0.07506,
      "change": 0.00092,
      "pChange": 1.24,
      "marketCap": 1946000000,
      "volume": 116160,
      "volume24h": 115810,
      "totalVolume24h": 16297999.999999998,
      "circulatingSupply": 25927000000
    },
    {
      "ID": 53,
      "dateCreated": "2018-11-12 00:00:22",
      "price": 0.07643,
      "change": 0,
      "pChange": 0,
      "marketCap": 1982000000,
      "volume": 0,
      "volume24h": 276082,
      "totalVolume24h": 24737000,
      "circulatingSupply": 25927000000
    },
    {
      "ID": 54,
      "dateCreated": "2018-11-13 00:00:39",
      "price": 0.07611,
      "change": 0,
      "pChange": 0,
      "marketCap": 1973000000,
      "volume": 0,
      "volume24h": 95770,
      "totalVolume24h": 22244000,
      "circulatingSupply": 25927000000
    },
    {
      "ID": 55,
      "dateCreated": "2018-11-14 00:00:18",
      "price": 0.07351,
      "change": -0.0026,
      "pChange": -3.42,
      "marketCap": 1906000000,
      "volume": 261332,
      "volume24h": 260720,
      "totalVolume24h": 22794000,
      "circulatingSupply": 25927000000
    },
    {
      "ID": 56,
      "dateCreated": "2018-11-15 00:00:35",
      "price": 0.06327,
      "change": 0,
      "pChange": 0,
      "marketCap": 1640000000,
      "volume": 0,
      "volume24h": 880502,
      "totalVolume24h": 57351000,
      "circulatingSupply": 25927000000
    },
    {
      "ID": 57,
      "dateCreated": "2018-11-16 00:00:09",
      "price": 0.06278,
      "change": -0.00049,
      "pChange": -0.77,
      "marketCap": 1628000000,
      "volume": 444557,
      "volume24h": 442661,
      "totalVolume24h": 63554000,
      "circulatingSupply": 25927000000
    },
    {
      "ID": 58,
      "dateCreated": "2018-11-17 00:00:15",
      "price": 0.06069,
      "change": -0.00209,
      "pChange": -3.33,
      "marketCap": 1574000000,
      "volume": 155187,
      "volume24h": 154323,
      "totalVolume24h": 29171000,
      "circulatingSupply": 25927000000
    },
    {
      "ID": 59,
      "dateCreated": "2018-11-18 00:00:17",
      "price": 0.0628,
      "change": 0.0021,
      "pChange": 3.48,
      "marketCap": 1628000000,
      "volume": 136301,
      "volume24h": 136055,
      "totalVolume24h": 19808000,
      "circulatingSupply": 25927000000
    },
    {
      "ID": 60,
      "dateCreated": "2018-11-19 00:00:34",
      "price": 0.06318,
      "change": 0,
      "pChange": 0,
      "marketCap": 1638000000,
      "volume": 0,
      "volume24h": 148470,
      "totalVolume24h": 17646000,
      "circulatingSupply": 25927000000
    },
    {
      "ID": 61,
      "dateCreated": "2018-11-20 00:00:10",
      "price": 0.05526,
      "change": -0.00792,
      "pChange": -12.54,
      "marketCap": 1433000000,
      "volume": 543026,
      "volume24h": 542791,
      "totalVolume24h": 62402000,
      "circulatingSupply": 25927000000
    },
    {
      "ID": 62,
      "dateCreated": "2018-11-21 00:00:32",
      "price": 0.0448,
      "change": 0.0003,
      "pChange": 0.67,
      "marketCap": 1162000000,
      "volume": 984,
      "volume24h": 615309,
      "totalVolume24h": 71226000,
      "circulatingSupply": 25927000000
    },
    {
      "ID": 63,
      "dateCreated": "2018-11-22 00:00:08",
      "price": 0.04784,
      "change": 0.00334,
      "pChange": 7.51,
      "marketCap": 1240000000,
      "volume": 253281,
      "volume24h": 252378,
      "totalVolume24h": 41103000,
      "circulatingSupply": 25927000000
    },
    {
      "ID": 64,
      "dateCreated": "2018-11-23 00:00:26",
      "price": 0.04419,
      "change": 0,
      "pChange": 0,
      "marketCap": 1146000000,
      "volume": 0,
      "volume24h": 159440,
      "totalVolume24h": 20979000,
      "circulatingSupply": 25927000000
    },
    {
      "ID": 65,
      "dateCreated": "2018-11-24 00:00:31",
      "price": 0.04342,
      "change": 0,
      "pChange": 0,
      "marketCap": 1126000000,
      "volume": 0,
      "volume24h": 174202,
      "totalVolume24h": 29040000,
      "circulatingSupply": 25927000000
    },
    {
      "ID": 66,
      "dateCreated": "2018-11-25 00:00:33",
      "price": 0.03763,
      "change": -0.00021,
      "pChange": -0.55,
      "marketCap": 975636000,
      "volume": 19477,
      "volume24h": 314787,
      "totalVolume24h": 29911000,
      "circulatingSupply": 25927000000
    },
    {
      "ID": 67,
      "dateCreated": "2018-11-26 00:00:10",
      "price": 0.03732,
      "change": -0.00052,
      "pChange": -1.37,
      "marketCap": 967598000,
      "volume": 510779,
      "volume24h": 467048,
      "totalVolume24h": 46459000,
      "circulatingSupply": 25927000000
    },
    {
      "ID": 68,
      "dateCreated": "2018-11-27 00:00:12",
      "price": 0.03498,
      "change": 0,
      "pChange": 0,
      "marketCap": 906929000,
      "volume": 0,
      "volume24h": 467678,
      "totalVolume24h": 33522000,
      "circulatingSupply": 25927000000
    },
    {
      "ID": 69,
      "dateCreated": "2018-11-28 00:00:40",
      "price": 0.03619,
      "change": 0,
      "pChange": 0,
      "marketCap": 938301000,
      "volume": 0,
      "volume24h": 197354,
      "totalVolume24h": 18881000,
      "circulatingSupply": 25927000000
    },
    {
      "ID": 70,
      "dateCreated": "2018-11-29 00:00:23",
      "price": 0.04181,
      "change": 0,
      "pChange": 0,
      "marketCap": 1084000000,
      "volume": 0,
      "volume24h": 561434,
      "totalVolume24h": 53772000,
      "circulatingSupply": 25927000000
    },
    {
      "ID": 71,
      "dateCreated": "2018-11-30 00:00:43",
      "price": 0.04143,
      "change": 0,
      "pChange": 0,
      "marketCap": 1074000000,
      "volume": 0,
      "volume24h": 367194,
      "totalVolume24h": 45356000,
      "circulatingSupply": 25927000000
    },
    {
      "ID": 72,
      "dateCreated": "2018-12-01 00:00:08",
      "price": 0.03888,
      "change": -0.00255,
      "pChange": -6.15,
      "marketCap": 1008000000,
      "volume": 176985,
      "volume24h": 176664,
      "totalVolume24h": 31750000,
      "circulatingSupply": 25927000000
    },
    {
      "ID": 73,
      "dateCreated": "2018-12-02 00:00:14",
      "price": 0.04102,
      "change": 0,
      "pChange": 0,
      "marketCap": 1064000000,
      "volume": 0,
      "volume24h": 281306,
      "totalVolume24h": 21945000,
      "circulatingSupply": 25927000000
    },
    {
      "ID": 74,
      "dateCreated": "2018-12-03 00:00:09",
      "price": 0.04102,
      "change": 0,
      "pChange": 0,
      "marketCap": 1064000000,
      "volume": 146190,
      "volume24h": 144021,
      "totalVolume24h": 23870000,
      "circulatingSupply": 25927000000
    },
    {
      "ID": 75,
      "dateCreated": "2018-12-04 00:00:28",
      "price": 0.03815,
      "change": 0,
      "pChange": 0,
      "marketCap": 989118000,
      "volume": 0,
      "volume24h": 168797,
      "totalVolume24h": 21792000,
      "circulatingSupply": 25927000000
    },
    {
      "ID": 76,
      "dateCreated": "2018-12-05 00:00:07",
      "price": 0.03717,
      "change": -0.00098,
      "pChange": -2.57,
      "marketCap": 963709000,
      "volume": 367128,
      "volume24h": 365787,
      "totalVolume24h": 23783000,
      "circulatingSupply": 25927000000
    },
    {
      "ID": 77,
      "dateCreated": "2018-12-06 00:00:13",
      "price": 0.0339,
      "change": 0,
      "pChange": 0,
      "marketCap": 878928000,
      "volume": 0,
      "volume24h": 294212,
      "totalVolume24h": 25623000,
      "circulatingSupply": 25927000000
    },
    {
      "ID": 78,
      "dateCreated": "2018-12-07 00:00:12",
      "price": 0.0305,
      "change": -0.0034,
      "pChange": -10.06,
      "marketCap": 790516000,
      "volume": 271580,
      "volume24h": 270622,
      "totalVolume24h": 26419000,
      "circulatingSupply": 25927000000
    },
    {
      "ID": 79,
      "dateCreated": "2018-12-08 00:00:11",
      "price": 0.0294,
      "change": 0,
      "pChange": 0,
      "marketCap": 762515000,
      "volume": 0,
      "volume24h": 559745,
      "totalVolume24h": 33264000.000000004,
      "circulatingSupply": 25927000000
    },
    {
      "ID": 80,
      "dateCreated": "2018-12-09 00:00:25",
      "price": 0.0305,
      "change": 0,
      "pChange": 0,
      "marketCap": 791813000,
      "volume": 0,
      "volume24h": 165145,
      "totalVolume24h": 21487000,
      "circulatingSupply": 25927000000
    },
    {
      "ID": 81,
      "dateCreated": "2018-12-10 00:00:08",
      "price": 0.0316,
      "change": 0.001,
      "pChange": 3.41,
      "marketCap": 818777000,
      "volume": 74319,
      "volume24h": 74260,
      "totalVolume24h": 19425000,
      "circulatingSupply": 25927000000
    },
    {
      "ID": 82,
      "dateCreated": "2018-12-11 00:00:26",
      "price": 0.0298,
      "change": 0,
      "pChange": 0,
      "marketCap": 773405000,
      "volume": 0,
      "volume24h": 154195,
      "totalVolume24h": 12841000,
      "circulatingSupply": 25927000000
    },
    {
      "ID": 83,
      "dateCreated": "2018-12-12 00:00:36",
      "price": 0.0291,
      "change": 0,
      "pChange": 0,
      "marketCap": 755256000,
      "volume": 0,
      "volume24h": 131305,
      "totalVolume24h": 10102000,
      "circulatingSupply": 25927000000
    },
    {
      "ID": 84,
      "dateCreated": "2018-12-13 00:00:39",
      "price": 0.0304,
      "change": 0,
      "pChange": 0,
      "marketCap": 788961000,
      "volume": 0,
      "volume24h": 83056,
      "totalVolume24h": 11402000,
      "circulatingSupply": 25927000000
    },
    {
      "ID": 85,
      "dateCreated": "2018-12-14 00:00:09",
      "price": 0.0289,
      "change": -0.0016,
      "pChange": -5.16,
      "marketCap": 748255000,
      "volume": 135841,
      "volume24h": 135712,
      "totalVolume24h": 11904000,
      "circulatingSupply": 25927000000
    },
    {
      "ID": 86,
      "dateCreated": "2018-12-15 00:00:20",
      "price": 0.0292,
      "change": 0,
      "pChange": 0,
      "marketCap": 756033000,
      "volume": 0,
      "volume24h": 145639,
      "totalVolume24h": 9654000,
      "circulatingSupply": 25927000000
    },
    {
      "ID": 87,
      "dateCreated": "2018-12-16 00:00:22",
      "price": 0.0278,
      "change": 0,
      "pChange": 0,
      "marketCap": 721032000,
      "volume": 0,
      "volume24h": 100406,
      "totalVolume24h": 8919000,
      "circulatingSupply": 25927000000
    },
    {
      "ID": 88,
      "dateCreated": "2018-12-17 00:00:33",
      "price": 0.0289,
      "change": 0,
      "pChange": 0,
      "marketCap": 749033000,
      "volume": 0,
      "volume24h": 132560,
      "totalVolume24h": 11075000,
      "circulatingSupply": 25927000000
    },
    {
      "ID": 89,
      "dateCreated": "2018-12-18 00:00:07",
      "price": 0.0327,
      "change": 0.0038,
      "pChange": 13.08,
      "marketCap": 847037000,
      "volume": 373072,
      "volume24h": 372715,
      "totalVolume24h": 32624000.000000004,
      "circulatingSupply": 25927000000
    },
    {
      "ID": 90,
      "dateCreated": "2018-12-19 00:00:17",
      "price": 0.0346,
      "change": 0,
      "pChange": 0,
      "marketCap": 897595000,
      "volume": 0,
      "volume24h": 266574,
      "totalVolume24h": 59861000,
      "circulatingSupply": 25927000000
    },
    {
      "ID": 91,
      "dateCreated": "2018-12-20 00:00:38",
      "price": 0.034,
      "change": 0,
      "pChange": 0,
      "marketCap": 881261000,
      "volume": 961,
      "volume24h": 462787,
      "totalVolume24h": 44702000,
      "circulatingSupply": 25927000000
    },
    {
      "ID": 92,
      "dateCreated": "2018-12-21 00:00:10",
      "price": 0.0382,
      "change": 0.0042,
      "pChange": 12.24,
      "marketCap": 989118000,
      "volume": 426687,
      "volume24h": 425852,
      "totalVolume24h": 45459000,
      "circulatingSupply": 25927000000
    },
    {
      "ID": 93,
      "dateCreated": "2018-12-22 00:00:22",
      "price": 0.0403,
      "change": 0,
      "pChange": 0,
      "marketCap": 1046000000,
      "volume": 0,
      "volume24h": 680966,
      "totalVolume24h": 83188000,
      "circulatingSupply": 25927000000
    },
    {
      "ID": 94,
      "dateCreated": "2018-12-23 00:00:25",
      "price": 0.042,
      "change": 0,
      "pChange": 0,
      "marketCap": 1088000000,
      "volume": 0,
      "volume24h": 201864,
      "totalVolume24h": 35560000,
      "circulatingSupply": 25927000000
    },
    {
      "ID": 95,
      "dateCreated": "2018-12-24 00:00:30",
      "price": 0.0445,
      "change": 0,
      "pChange": 0,
      "marketCap": 1153000000,
      "volume": 0,
      "volume24h": 377711,
      "totalVolume24h": 43855000,
      "circulatingSupply": 25927000000
    },
    {
      "ID": 96,
      "dateCreated": "2018-12-25 00:00:37",
      "price": 0.0453,
      "change": 0,
      "pChange": 0,
      "marketCap": 1174000000,
      "volume": 0,
      "volume24h": 510864,
      "totalVolume24h": 56356000,
      "circulatingSupply": 25927000000
    },
    {
      "ID": 97,
      "dateCreated": "2018-12-26 00:00:22",
      "price": 0.0414,
      "change": 0,
      "pChange": 0,
      "marketCap": 1073000000,
      "volume": 0,
      "volume24h": 332086,
      "totalVolume24h": 43479000,
      "circulatingSupply": 25927000000
    },
    {
      "ID": 98,
      "dateCreated": "2018-12-27 00:00:36",
      "price": 0.0409,
      "change": 0,
      "pChange": 0,
      "marketCap": 1061000000,
      "volume": 0,
      "volume24h": 202962,
      "totalVolume24h": 27464000,
      "circulatingSupply": 25927000000
    },
    {
      "ID": 99,
      "dateCreated": "2018-12-28 00:00:36",
      "price": 0.0366,
      "change": 0,
      "pChange": 0,
      "marketCap": 949190000,
      "volume": 0,
      "volume24h": 336574,
      "totalVolume24h": 22281000,
      "circulatingSupply": 25927000000
    },
    {
      "ID": 100,
      "dateCreated": "2018-12-29 00:00:18",
      "price": 0.0415,
      "change": 0,
      "pChange": 0,
      "marketCap": 1076000000,
      "volume": 0,
      "volume24h": 264422,
      "totalVolume24h": 28096000,
      "circulatingSupply": 25927000000
    },
    {
      "ID": 101,
      "dateCreated": "2018-12-30 00:00:35",
      "price": 0.0408,
      "change": 0,
      "pChange": 0,
      "marketCap": 1056999999.9999999,
      "volume": 0,
      "volume24h": 454307,
      "totalVolume24h": 29147000,
      "circulatingSupply": 25927000000
    },
    {
      "ID": 102,
      "dateCreated": "2018-12-31 00:00:35",
      "price": 0.0432,
      "change": 0,
      "pChange": 0,
      "marketCap": 1121000000,
      "volume": 0,
      "volume24h": 186463,
      "totalVolume24h": 25612000,
      "circulatingSupply": 25927000000
    },
    {
      "ID": 103,
      "dateCreated": "2019-01-01 00:00:37",
      "price": 0.0408,
      "change": 0,
      "pChange": 0,
      "marketCap": 1058000000,
      "volume": 0,
      "volume24h": 233328,
      "totalVolume24h": 17939000,
      "circulatingSupply": 25927000000
    },
    {
      "ID": 104,
      "dateCreated": "2019-01-02 00:00:11",
      "price": 0.0424,
      "change": 0.0016,
      "pChange": 3.99,
      "marketCap": 1101000000,
      "volume": 253788,
      "volume24h": 253442,
      "totalVolume24h": 14892000,
      "circulatingSupply": 25927000000
    },
    {
      "ID": 105,
      "dateCreated": "2019-01-03 00:00:20",
      "price": 0.0454,
      "change": 0,
      "pChange": 0,
      "marketCap": 1177000000,
      "volume": 0,
      "volume24h": 251074,
      "totalVolume24h": 23930000,
      "circulatingSupply": 25927000000
    },
    {
      "ID": 106,
      "dateCreated": "2019-01-04 00:00:37",
      "price": 0.0423,
      "change": 0,
      "pChange": 0,
      "marketCap": 1098000000,
      "volume": 0,
      "volume24h": 176470,
      "totalVolume24h": 19318000,
      "circulatingSupply": 25927000000
    },
    {
      "ID": 107,
      "dateCreated": "2019-01-05 00:00:37",
      "price": 0.0437,
      "change": -0.0002,
      "pChange": -0.5,
      "marketCap": 1132000000,
      "volume": 101,
      "volume24h": 120793,
      "totalVolume24h": 16436000,
      "circulatingSupply": 25927000000
    },
    {
      "ID": 108,
      "dateCreated": "2019-01-06 00:00:37",
      "price": 0.0446,
      "change": 0,
      "pChange": 0,
      "marketCap": 1155000000,
      "volume": 0,
      "volume24h": 276584,
      "totalVolume24h": 23909000,
      "circulatingSupply": 25927000000
    },
    {
      "ID": 109,
      "dateCreated": "2019-01-07 00:00:12",
      "price": 0.0493,
      "change": 0.0047,
      "pChange": 10.61,
      "marketCap": 1278000000,
      "volume": 385541,
      "volume24h": 377604,
      "totalVolume24h": 49601000,
      "circulatingSupply": 25927000000
    },
    {
      "ID": 110,
      "dateCreated": "2019-01-08 00:00:29",
      "price": 0.0473,
      "change": 0,
      "pChange": 0,
      "marketCap": 1226000000,
      "volume": 0,
      "volume24h": 340628,
      "totalVolume24h": 39436000,
      "circulatingSupply": 25927000000
    },
    {
      "ID": 111,
      "dateCreated": "2019-01-09 00:00:37",
      "price": 0.0484,
      "change": 0.0003,
      "pChange": 0.54,
      "marketCap": 1255000000,
      "volume": 1318,
      "volume24h": 528131,
      "totalVolume24h": 32223999.999999996,
      "circulatingSupply": 25927000000
    },
    {
      "ID": 112,
      "dateCreated": "2019-01-10 00:00:26",
      "price": 0.052,
      "change": 0,
      "pChange": 0,
      "marketCap": 1347000000,
      "volume": 0,
      "volume24h": 564190,
      "totalVolume24h": 52464000,
      "circulatingSupply": 25927000000
    },
    {
      "ID": 113,
      "dateCreated": "2019-01-11 00:00:37",
      "price": 0.0441,
      "change": 0,
      "pChange": 0,
      "marketCap": 1144000000,
      "volume": 0,
      "volume24h": 1415000,
      "totalVolume24h": 73991000,
      "circulatingSupply": 25927000000
    },
    {
      "ID": 114,
      "dateCreated": "2019-01-12 00:00:37",
      "price": 0.0435,
      "change": 0,
      "pChange": 0,
      "marketCap": 1128000000,
      "volume": 0,
      "volume24h": 408164,
      "totalVolume24h": 31080000,
      "circulatingSupply": 25927000000
    },
    {
      "ID": 115,
      "dateCreated": "2019-01-13 00:00:36",
      "price": 0.0434,
      "change": 0,
      "pChange": 0,
      "marketCap": 1125000000,
      "volume": 0,
      "volume24h": 364589,
      "totalVolume24h": 16091999.999999998,
      "circulatingSupply": 25927000000
    },
    {
      "ID": 116,
      "dateCreated": "2019-01-14 00:00:37",
      "price": 0.0397,
      "change": 0,
      "pChange": 0.03,
      "marketCap": 1030000000,
      "volume": 0,
      "volume24h": 265056,
      "totalVolume24h": 19752000,
      "circulatingSupply": 25927000000
    },
    {
      "ID": 117,
      "dateCreated": "2019-01-15 00:00:16",
      "price": 0.044,
      "change": 0.0043,
      "pChange": 10.78,
      "marketCap": 1141000000,
      "volume": 376998,
      "volume24h": 373259,
      "totalVolume24h": 29053000,
      "circulatingSupply": 25927000000
    },
    {
      "ID": 118,
      "dateCreated": "2019-01-16 00:00:37",
      "price": 0.0421,
      "change": 0,
      "pChange": 0,
      "marketCap": 1093000000,
      "volume": 0,
      "volume24h": 194332,
      "totalVolume24h": 23913000,
      "circulatingSupply": 25927000000
    },
    {
      "ID": 119,
      "dateCreated": "2019-01-17 00:00:11",
      "price": 0.0443,
      "change": 0.0022,
      "pChange": 5.2,
      "marketCap": 1149000000,
      "volume": 304354,
      "volume24h": 304176,
      "totalVolume24h": 33671000,
      "circulatingSupply": 25927000000
    },
    {
      "ID": 120,
      "dateCreated": "2019-01-18 00:00:33",
      "price": 0.0452,
      "change": 0,
      "pChange": 0,
      "marketCap": 1171000000,
      "volume": 0,
      "volume24h": 241869,
      "totalVolume24h": 34805000,
      "circulatingSupply": 25927000000
    },
    {
      "ID": 121,
      "dateCreated": "2019-01-19 00:00:24",
      "price": 0.0441,
      "change": 0,
      "pChange": 0,
      "marketCap": 1143000000,
      "volume": 0,
      "volume24h": 108959,
      "totalVolume24h": 17083000,
      "circulatingSupply": 25927000000
    },
    {
      "ID": 122,
      "dateCreated": "2019-01-20 00:00:37",
      "price": 0.0455,
      "change": 0,
      "pChange": 0,
      "marketCap": 1181000000,
      "volume": 0,
      "volume24h": 159067,
      "totalVolume24h": 21448000,
      "circulatingSupply": 25927000000
    },
    {
      "ID": 123,
      "dateCreated": "2019-01-21 00:00:09",
      "price": 0.043,
      "change": -0.0025,
      "pChange": -5.55,
      "marketCap": 1115000000,
      "volume": 453459,
      "volume24h": 448694,
      "totalVolume24h": 23336000,
      "circulatingSupply": 25927000000
    },
    {
      "ID": 124,
      "dateCreated": "2019-01-22 00:00:13",
      "price": 0.0427,
      "change": -0.0004,
      "pChange": -0.91,
      "marketCap": 1106000000,
      "volume": 318417,
      "volume24h": 318416,
      "totalVolume24h": 15407000,
      "circulatingSupply": 25927000000
    },
    {
      "ID": 125,
      "dateCreated": "2019-01-23 00:00:37",
      "price": 0.0433,
      "change": 0,
      "pChange": 0,
      "marketCap": 1123000000,
      "volume": 0,
      "volume24h": 368012,
      "totalVolume24h": 21078000,
      "circulatingSupply": 25927000000
    },
    {
      "ID": 126,
      "dateCreated": "2019-01-24 00:00:17",
      "price": 0.0432,
      "change": -0.0001,
      "pChange": -0.3,
      "marketCap": 1120000000,
      "volume": 162841,
      "volume24h": 163057,
      "totalVolume24h": 14339000,
      "circulatingSupply": 25927000000
    },
    {
      "ID": 127,
      "dateCreated": "2019-01-25 00:00:33",
      "price": 0.0431,
      "change": 0,
      "pChange": 0,
      "marketCap": 1118000000,
      "volume": 0,
      "volume24h": 94390,
      "totalVolume24h": 11313000,
      "circulatingSupply": 25927000000
    },
    {
      "ID": 128,
      "dateCreated": "2019-01-26 00:00:37",
      "price": 0.0436,
      "change": 0,
      "pChange": 0,
      "marketCap": 1131000000,
      "volume": 0,
      "volume24h": 120254,
      "totalVolume24h": 11762000,
      "circulatingSupply": 25927000000
    },
    {
      "ID": 129,
      "dateCreated": "2019-01-27 00:00:15",
      "price": 0.0428,
      "change": -0.0009,
      "pChange": -1.95,
      "marketCap": 1109000000,
      "volume": 83500,
      "volume24h": 83326,
      "totalVolume24h": 12386000,
      "circulatingSupply": 25927000000
    },
    {
      "ID": 130,
      "dateCreated": "2019-01-28 00:00:34",
      "price": 0.0404,
      "change": 0,
      "pChange": 0,
      "marketCap": 1048000000,
      "volume": 0,
      "volume24h": 118451,
      "totalVolume24h": 19222000,
      "circulatingSupply": 25927000000
    },
    {
      "ID": 131,
      "dateCreated": "2019-01-29 00:00:08",
      "price": 0.0385,
      "change": -0.0019,
      "pChange": -4.68,
      "marketCap": 998711000,
      "volume": 187283,
      "volume24h": 186897,
      "totalVolume24h": 28051000,
      "circulatingSupply": 25927000000
    },
    {
      "ID": 132,
      "dateCreated": "2019-01-30 00:00:07",
      "price": 0.038,
      "change": -0.0006,
      "pChange": -1.48,
      "marketCap": 983932000,
      "volume": 142436,
      "volume24h": 131049,
      "totalVolume24h": 18845000,
      "circulatingSupply": 25927000000
    },
    {
      "ID": 133,
      "dateCreated": "2019-01-31 00:00:37",
      "price": 0.0399,
      "change": 0,
      "pChange": 0,
      "marketCap": 1036000000,
      "volume": 0,
      "volume24h": 168486,
      "totalVolume24h": 22032000,
      "circulatingSupply": 25927000000
    },
    {
      "ID": 134,
      "dateCreated": "2019-02-01 00:00:18",
      "price": 0.0383,
      "change": 0,
      "pChange": 0,
      "marketCap": 993007000,
      "volume": 0,
      "volume24h": 77068,
      "totalVolume24h": 16961000,
      "circulatingSupply": 25927000000
    },
    {
      "ID": 135,
      "dateCreated": "2019-02-02 00:00:24",
      "price": 0.0386,
      "change": 0.0003,
      "pChange": 0.68,
      "marketCap": 999748000,
      "volume": 109808,
      "volume24h": 109330,
      "totalVolume24h": 15188000,
      "circulatingSupply": 25927000000
    },
    {
      "ID": 136,
      "dateCreated": "2019-02-03 00:00:24",
      "price": 0.0389,
      "change": 0,
      "pChange": 0.08,
      "marketCap": 1008000000,
      "volume": 0,
      "volume24h": 61489,
      "totalVolume24h": 8977000,
      "circulatingSupply": 25927000000
    },
    {
      "ID": 137,
      "dateCreated": "2019-02-04 00:00:37",
      "price": 0.0379,
      "change": 0,
      "pChange": 0,
      "marketCap": 983414000,
      "volume": 0,
      "volume24h": 79569,
      "totalVolume24h": 10351000,
      "circulatingSupply": 25927000000
    },
    {
      "ID": 138,
      "dateCreated": "2019-02-05 00:00:37",
      "price": 0.0376,
      "change": 0,
      "pChange": 0,
      "marketCap": 975636000,
      "volume": 0,
      "volume24h": 32610,
      "totalVolume24h": 10542000,
      "circulatingSupply": 25927000000
    },
    {
      "ID": 139,
      "dateCreated": "2019-02-06 00:00:16",
      "price": 0.0382,
      "change": 0.0006,
      "pChange": 1.51,
      "marketCap": 990414000,
      "volume": 61948,
      "volume24h": 61742,
      "totalVolume24h": 12067000,
      "circulatingSupply": 25927000000
    },
    {
      "ID": 140,
      "dateCreated": "2019-02-07 00:00:29",
      "price": 0.0364,
      "change": 0,
      "pChange": 0,
      "marketCap": 942968000,
      "volume": 0,
      "volume24h": 214220,
      "totalVolume24h": 15815000,
      "circulatingSupply": 25927000000
    },
    {
      "ID": 141,
      "dateCreated": "2019-02-08 00:00:37",
      "price": 0.037,
      "change": 0,
      "pChange": 0,
      "marketCap": 960339000,
      "volume": 0,
      "volume24h": 65201,
      "totalVolume24h": 9810000,
      "circulatingSupply": 25927000000
    },
    {
      "ID": 142,
      "dateCreated": "2019-02-09 00:00:11",
      "price": 0.0406,
      "change": 0.0035,
      "pChange": 9.56,
      "marketCap": 1052000000,
      "volume": 194608,
      "volume24h": 193873,
      "totalVolume24h": 27370000,
      "circulatingSupply": 25927000000
    },
    {
      "ID": 143,
      "dateCreated": "2019-02-10 00:00:38",
      "price": 0.0409,
      "change": 0,
      "pChange": 0,
      "marketCap": 1061000000,
      "volume": 0,
      "volume24h": 301625,
      "totalVolume24h": 17139000,
      "circulatingSupply": 25927000000
    },
    {
      "ID": 144,
      "dateCreated": "2019-02-11 00:00:09",
      "price": 0.0426,
      "change": 0.0017,
      "pChange": 4.23,
      "marketCap": 1106000000,
      "volume": 283510,
      "volume24h": 282891,
      "totalVolume24h": 20936000,
      "circulatingSupply": 25927000000
    },
    {
      "ID": 145,
      "dateCreated": "2019-02-12 00:00:25",
      "price": 0.0423,
      "change": 0,
      "pChange": 0,
      "marketCap": 1097000000,
      "volume": 0,
      "volume24h": 194273,
      "totalVolume24h": 14848000,
      "circulatingSupply": 25927000000
    },
    {
      "ID": 146,
      "dateCreated": "2019-02-13 00:00:19",
      "price": 0.0415,
      "change": 0,
      "pChange": 0,
      "marketCap": 1076000000,
      "volume": 0,
      "volume24h": 175153,
      "totalVolume24h": 13304000,
      "circulatingSupply": 25927000000
    },
    {
      "ID": 147,
      "dateCreated": "2019-02-14 00:00:37",
      "price": 0.0401,
      "change": 0,
      "pChange": 0,
      "marketCap": 1040000000,
      "volume": 0,
      "volume24h": 77654,
      "totalVolume24h": 11822000,
      "circulatingSupply": 25927000000
    },
    {
      "ID": 148,
      "dateCreated": "2019-02-15 00:00:12",
      "price": 0.0406,
      "change": 0.0005,
      "pChange": 1.15,
      "marketCap": 1052000000,
      "volume": 31862,
      "volume24h": 31934,
      "totalVolume24h": 10730000,
      "circulatingSupply": 25927000000
    },
    {
      "ID": 149,
      "dateCreated": "2019-02-16 00:00:19",
      "price": 0.0404,
      "change": -0.0003,
      "pChange": -0.66,
      "marketCap": 1046999999.9999999,
      "volume": 67062,
      "volume24h": 67086,
      "totalVolume24h": 12722000,
      "circulatingSupply": 25927000000
    },
    {
      "ID": 150,
      "dateCreated": "2019-02-17 00:00:14",
      "price": 0.0407,
      "change": 0,
      "pChange": -0.02,
      "marketCap": 1054999999.9999999,
      "volume": 0,
      "volume24h": 73315,
      "totalVolume24h": 10446000,
      "circulatingSupply": 25927000000
    },
    {
      "ID": 151,
      "dateCreated": "2019-02-18 00:00:37",
      "price": 0.0414,
      "change": 0.0001,
      "pChange": 0.19,
      "marketCap": 1073000000,
      "volume": 829,
      "volume24h": 84297,
      "totalVolume24h": 14626000,
      "circulatingSupply": 25927000000
    },
    {
      "ID": 152,
      "dateCreated": "2019-02-19 00:00:12",
      "price": 0.0452,
      "change": 0,
      "pChange": 0.02,
      "marketCap": 1172000000,
      "volume": 0,
      "volume24h": 678531,
      "totalVolume24h": 39242000,
      "circulatingSupply": 25927000000
    },
    {
      "ID": 153,
      "dateCreated": "2019-02-20 00:00:09",
      "price": 0.0459,
      "change": 0.0007,
      "pChange": 1.48,
      "marketCap": 1189000000,
      "volume": 356696,
      "volume24h": 357748,
      "totalVolume24h": 41088000,
      "circulatingSupply": 25927000000
    },
    {
      "ID": 154,
      "dateCreated": "2019-02-21 00:00:09",
      "price": 0.0473,
      "change": 0.0014,
      "pChange": 3.16,
      "marketCap": 1227000000,
      "volume": 106516,
      "volume24h": 106526,
      "totalVolume24h": 25499000,
      "circulatingSupply": 25927000000
    },
    {
      "ID": 155,
      "dateCreated": "2019-02-22 00:00:07",
      "price": 0.0447,
      "change": -0.0026,
      "pChange": -5.58,
      "marketCap": 1158000000,
      "volume": 269992,
      "volume24h": 269993,
      "totalVolume24h": 24188000,
      "circulatingSupply": 25927000000
    },
    {
      "ID": 156,
      "dateCreated": "2019-02-23 00:00:28",
      "price": 0.0456,
      "change": 0,
      "pChange": 0,
      "marketCap": 1183000000,
      "volume": 0,
      "volume24h": 119336,
      "totalVolume24h": 17182000,
      "circulatingSupply": 25927000000
    },
    {
      "ID": 157,
      "dateCreated": "2019-02-24 00:00:29",
      "price": 0.0483,
      "change": 0,
      "pChange": 0.04,
      "marketCap": 1252000000,
      "volume": 0,
      "volume24h": 294071,
      "totalVolume24h": 28930000,
      "circulatingSupply": 25927000000
    },
    {
      "ID": 158,
      "dateCreated": "2019-02-25 00:00:39",
      "price": 0.0415,
      "change": 0,
      "pChange": 0,
      "marketCap": 1077000000,
      "volume": 0,
      "volume24h": 966819,
      "totalVolume24h": 45656000,
      "circulatingSupply": 25927000000
    },
    {
      "ID": 159,
      "dateCreated": "2019-02-26 00:00:31",
      "price": 0.0435,
      "change": 0,
      "pChange": 0,
      "marketCap": 1128000000,
      "volume": 0,
      "volume24h": 186090,
      "totalVolume24h": 24115000,
      "circulatingSupply": 25927000000
    },
    {
      "ID": 160,
      "dateCreated": "2019-02-27 00:00:37",
      "price": 0.0439,
      "change": 0.0013,
      "pChange": 2.98,
      "marketCap": 1139000000,
      "volume": 53,
      "volume24h": 113555,
      "totalVolume24h": 16248000.000000002,
      "circulatingSupply": 25927000000
    },
    {
      "ID": 161,
      "dateCreated": "2019-02-28 00:00:26",
      "price": 0.0429,
      "change": 0,
      "pChange": 0,
      "marketCap": 1111000000,
      "volume": 0,
      "volume24h": 121408,
      "totalVolume24h": 17191000,
      "circulatingSupply": 25927000000
    },
    {
      "ID": 162,
      "dateCreated": "2019-03-01 00:00:06",
      "price": 0.043,
      "change": 0.0001,
      "pChange": 0.19,
      "marketCap": 1114000000,
      "volume": 54525,
      "volume24h": 54525,
      "totalVolume24h": 13115000,
      "circulatingSupply": 25927000000
    },
    {
      "ID": 163,
      "dateCreated": "2019-03-02 00:00:08",
      "price": 0.0428,
      "change": -0.0001,
      "pChange": -0.28,
      "marketCap": 1110000000,
      "volume": 176722,
      "volume24h": 170344,
      "totalVolume24h": 10281000,
      "circulatingSupply": 25927000000
    },
    {
      "ID": 164,
      "dateCreated": "2019-03-03 00:00:14",
      "price": 0.0436,
      "change": 0,
      "pChange": 0,
      "marketCap": 1130000000,
      "volume": 0,
      "volume24h": 65286,
      "totalVolume24h": 9711000,
      "circulatingSupply": 25927000000
    },
    {
      "ID": 165,
      "dateCreated": "2019-03-04 00:00:32",
      "price": 0.0421,
      "change": -0.0002,
      "pChange": -0.43,
      "marketCap": 1092000000,
      "volume": 0,
      "volume24h": 34890,
      "totalVolume24h": 11435000,
      "circulatingSupply": 25927000000
    },
    {
      "ID": 166,
      "dateCreated": "2019-03-05 00:00:06",
      "price": 0.0404,
      "change": -0.0019,
      "pChange": -4.56,
      "marketCap": 1046000000,
      "volume": 202694,
      "volume24h": 202701,
      "totalVolume24h": 18088000,
      "circulatingSupply": 25927000000
    },
    {
      "ID": 167,
      "dateCreated": "2019-03-06 00:00:24",
      "price": 0.0427,
      "change": 0,
      "pChange": 0,
      "marketCap": 1107000000,
      "volume": 0,
      "volume24h": 129128,
      "totalVolume24h": 21212000,
      "circulatingSupply": 25927000000
    },
    {
      "ID": 168,
      "dateCreated": "2019-03-07 00:00:37",
      "price": 0.0435,
      "change": 0,
      "pChange": 0.02,
      "marketCap": 1127000000,
      "volume": 0,
      "volume24h": 90318,
      "totalVolume24h": 13663000,
      "circulatingSupply": 25927000000
    },
    {
      "ID": 169,
      "dateCreated": "2019-03-08 00:00:16",
      "price": 0.0426,
      "change": -0.0009,
      "pChange": -1.96,
      "marketCap": 1104000000,
      "volume": 90545,
      "volume24h": 90546,
      "totalVolume24h": 16710000,
      "circulatingSupply": 25927000000
    },
    {
      "ID": 170,
      "dateCreated": "2019-03-09 00:00:36",
      "price": 0.0424,
      "change": 0,
      "pChange": 0,
      "marketCap": 1101000000,
      "volume": 0,
      "volume24h": 85746,
      "totalVolume24h": 19140000,
      "circulatingSupply": 25927000000
    },
    {
      "ID": 171,
      "dateCreated": "2019-03-10 00:00:28",
      "price": 0.0464,
      "change": 0,
      "pChange": -0.06,
      "marketCap": 1203000000,
      "volume": 2,
      "volume24h": 280399,
      "totalVolume24h": 49336000,
      "circulatingSupply": 25927000000
    },
    {
      "ID": 172,
      "dateCreated": "2019-03-11 00:00:37",
      "price": 0.0454,
      "change": 0,
      "pChange": 0,
      "marketCap": 1177000000,
      "volume": 0,
      "volume24h": 184610,
      "totalVolume24h": 26105000,
      "circulatingSupply": 25927000000
    },
    {
      "ID": 173,
      "dateCreated": "2019-03-12 00:00:11",
      "price": 0.0476,
      "change": 0.0021,
      "pChange": 4.71,
      "marketCap": 1233000000,
      "volume": 226077,
      "volume24h": 225848,
      "totalVolume24h": 52811000,
      "circulatingSupply": 25927000000
    },
    {
      "ID": 174,
      "dateCreated": "2019-03-13 00:00:28",
      "price": 0.0472,
      "change": 0,
      "pChange": 0,
      "marketCap": 1222000000,
      "volume": 0,
      "volume24h": 341683,
      "totalVolume24h": 35143000,
      "circulatingSupply": 25927000000
    },
    {
      "ID": 175,
      "dateCreated": "2019-03-14 00:00:38",
      "price": 0.0468,
      "change": 0,
      "pChange": -0.03,
      "marketCap": 1212000000,
      "volume": 0,
      "volume24h": 177407,
      "totalVolume24h": 28618000,
      "circulatingSupply": 25927000000
    },
    {
      "ID": 176,
      "dateCreated": "2019-03-15 00:00:20",
      "price": 0.048,
      "change": 0,
      "pChange": 0,
      "marketCap": 1244000000,
      "volume": 0,
      "volume24h": 142251,
      "totalVolume24h": 25377000,
      "circulatingSupply": 25927000000
    },
    {
      "ID": 177,
      "dateCreated": "2019-03-16 00:00:15",
      "price": 0.0497,
      "change": 0.0023,
      "pChange": 4.92,
      "marketCap": 1289000000,
      "volume": 408051,
      "volume24h": 408793,
      "totalVolume24h": 44239000,
      "circulatingSupply": 25927000000
    },
    {
      "ID": 178,
      "dateCreated": "2019-03-17 00:00:21",
      "price": 0.0512,
      "change": 0.0015,
      "pChange": 3.02,
      "marketCap": 1328000000,
      "volume": 371369,
      "volume24h": 371420,
      "totalVolume24h": 45024000,
      "circulatingSupply": 25927000000
    },
    {
      "ID": 179,
      "dateCreated": "2019-03-18 00:00:37",
      "price": 0.0498,
      "change": 0,
      "pChange": 0,
      "marketCap": 1290000000,
      "volume": 0,
      "volume24h": 211582,
      "totalVolume24h": 26933000,
      "circulatingSupply": 25927000000
    },
    {
      "ID": 180,
      "dateCreated": "2019-03-19 00:00:08",
      "price": 0.0499,
      "change": 0.0001,
      "pChange": 0.28,
      "marketCap": 1294000000,
      "volume": 230982,
      "volume24h": 230992,
      "totalVolume24h": 38323000,
      "circulatingSupply": 25927000000
    },
    {
      "ID": 181,
      "dateCreated": "2019-03-20 00:00:30",
      "price": 0.052,
      "change": 0,
      "pChange": 0,
      "marketCap": 1348000000,
      "volume": 0,
      "volume24h": 319052,
      "totalVolume24h": 44825000,
      "circulatingSupply": 25927000000
    },
    {
      "ID": 182,
      "dateCreated": "2019-03-21 00:00:36",
      "price": 0.0534,
      "change": 0,
      "pChange": -0.07,
      "marketCap": 1384000000,
      "volume": 0,
      "volume24h": 321614,
      "totalVolume24h": 47749000,
      "circulatingSupply": 25927000000
    },
    {
      "ID": 183,
      "dateCreated": "2019-03-22 00:00:19",
      "price": 0.0524,
      "change": 0,
      "pChange": 0,
      "marketCap": 1358000000,
      "volume": 0,
      "volume24h": 511000,
      "totalVolume24h": 66433000.00000001,
      "circulatingSupply": 25927000000
    },
    {
      "ID": 184,
      "dateCreated": "2019-03-23 00:00:11",
      "price": 0.0575,
      "change": 0.0052,
      "pChange": 9.83,
      "marketCap": 1492000000,
      "volume": 813278,
      "volume24h": 813279,
      "totalVolume24h": 113223000,
      "circulatingSupply": 25927000000
    },
    {
      "ID": 185,
      "dateCreated": "2019-03-24 00:00:26",
      "price": 0.0633,
      "change": 0.0055,
      "pChange": 9.59,
      "marketCap": 1641000000,
      "volume": 870121,
      "volume24h": 870194,
      "totalVolume24h": 144430000,
      "circulatingSupply": 25927000000
    },
    {
      "ID": 186,
      "dateCreated": "2019-03-25 00:00:42",
      "price": 0.0612,
      "change": 0,
      "pChange": 0,
      "marketCap": 1587000000,
      "volume": 0,
      "volume24h": 879942,
      "totalVolume24h": 96975000,
      "circulatingSupply": 25927000000
    },
    {
      "ID": 187,
      "dateCreated": "2019-03-26 00:00:16",
      "price": 0.0586,
      "change": -0.0026,
      "pChange": -4.2,
      "marketCap": 1520000000,
      "volume": 813238,
      "volume24h": 815915,
      "totalVolume24h": 76089000,
      "circulatingSupply": 25927000000
    },
    {
      "ID": 188,
      "dateCreated": "2019-03-27 00:00:34",
      "price": 0.0616,
      "change": 0,
      "pChange": 0,
      "marketCap": 1598000000,
      "volume": 0,
      "volume24h": 529579,
      "totalVolume24h": 83758000,
      "circulatingSupply": 25927000000
    },
    {
      "ID": 189,
      "dateCreated": "2019-03-28 00:00:07",
      "price": 0.0668,
      "change": 0.0052,
      "pChange": 8.46,
      "marketCap": 1733000000,
      "volume": 838394,
      "volume24h": 839025,
      "totalVolume24h": 123481000,
      "circulatingSupply": 25927000000
    },
    {
      "ID": 190,
      "dateCreated": "2019-03-29 00:00:18",
      "price": 0.0652,
      "change": -0.0016,
      "pChange": -2.39,
      "marketCap": 1691000000,
      "volume": 473980,
      "volume24h": 474092,
      "totalVolume24h": 75668000,
      "circulatingSupply": 25927000000
    },
    {
      "ID": 191,
      "dateCreated": "2019-03-30 00:00:37",
      "price": 0.0713,
      "change": 0,
      "pChange": 0,
      "marketCap": 1850000000,
      "volume": 16554,
      "volume24h": 933013,
      "totalVolume24h": 130521999.99999999,
      "circulatingSupply": 25927000000
    },
    {
      "ID": 192,
      "dateCreated": "2019-03-31 00:00:12",
      "price": 0.0717,
      "change": 0,
      "pChange": 0.01,
      "marketCap": 1858000000,
      "volume": 0,
      "volume24h": 644001,
      "totalVolume24h": 100317000,
      "circulatingSupply": 25927000000
    },
    {
      "ID": 193,
      "dateCreated": "2019-04-01 00:00:06",
      "price": 0.0705,
      "change": -0.0015,
      "pChange": -2.08,
      "marketCap": 1827000000,
      "volume": 0,
      "volume24h": 195420,
      "totalVolume24h": 73794000,
      "circulatingSupply": 25927000000
    },
    {
      "ID": 194,
      "dateCreated": "2019-04-02 00:00:19",
      "price": 0.0717,
      "change": 0,
      "pChange": 0,
      "marketCap": 1858000000,
      "volume": 0,
      "volume24h": 586997,
      "totalVolume24h": 88481000,
      "circulatingSupply": 25927000000
    },
    {
      "ID": 195,
      "dateCreated": "2019-04-03 00:00:14",
      "price": 0.086,
      "change": 0,
      "pChange": 0,
      "marketCap": 2229000000,
      "volume": 0,
      "volume24h": 2620000,
      "totalVolume24h": 219884000,
      "circulatingSupply": 25927000000
    },
    {
      "ID": 196,
      "dateCreated": "2019-04-04 00:00:06",
      "price": 0.091,
      "change": 0.0051,
      "pChange": 5.91,
      "marketCap": 2360000000,
      "volume": 3990000,
      "volume24h": 3988000,
      "totalVolume24h": 301668000,
      "circulatingSupply": 25927000000
    },
    {
      "ID": 197,
      "dateCreated": "2019-04-05 00:00:14",
      "price": 0.0876,
      "change": 0,
      "pChange": -0.01,
      "marketCap": 2271000000,
      "volume": 0,
      "volume24h": 1647000,
      "totalVolume24h": 181769000,
      "circulatingSupply": 25927000000
    },
    {
      "ID": 198,
      "dateCreated": "2019-04-06 00:00:35",
      "price": 0.0909,
      "change": 0,
      "pChange": 0,
      "marketCap": 2358000000,
      "volume": 0,
      "volume24h": 830316,
      "totalVolume24h": 122303000,
      "circulatingSupply": 25927000000
    },
    {
      "ID": 199,
      "dateCreated": "2019-04-07 00:00:13",
      "price": 0.0898,
      "change": -0.0001,
      "pChange": -0.09,
      "marketCap": 2329000000,
      "volume": 0,
      "volume24h": 617941,
      "totalVolume24h": 120168000,
      "circulatingSupply": 25927000000
    },
    {
      "ID": 200,
      "dateCreated": "2019-04-08 00:00:10",
      "price": 0.0898,
      "change": -0.0001,
      "pChange": -0.09,
      "marketCap": 2329000000,
      "volume": 619719,
      "volume24h": 619899,
      "totalVolume24h": 107612000,
      "circulatingSupply": 25927000000
    },
    {
      "ID": 201,
      "dateCreated": "2019-04-09 00:00:37",
      "price": 0.087,
      "change": 0,
      "pChange": -0.01,
      "marketCap": 2257000000,
      "volume": 0,
      "volume24h": 871245,
      "totalVolume24h": 132913999.99999999,
      "circulatingSupply": 25927000000
    },
    {
      "ID": 202,
      "dateCreated": "2019-04-10 00:00:11",
      "price": 0.0837,
      "change": -0.0033,
      "pChange": -3.84,
      "marketCap": 2171000000,
      "volume": 543497,
      "volume24h": 543610,
      "totalVolume24h": 115313000,
      "circulatingSupply": 25927000000
    },
    {
      "ID": 203,
      "dateCreated": "2019-04-11 00:00:28",
      "price": 0.0896,
      "change": 0,
      "pChange": 0,
      "marketCap": 2323000000,
      "volume": 0,
      "volume24h": 1018000,
      "totalVolume24h": 122693000,
      "circulatingSupply": 25927000000
    },
    {
      "ID": 204,
      "dateCreated": "2019-04-12 00:00:14",
      "price": 0.0831,
      "change": -0.0065,
      "pChange": -7.21,
      "marketCap": 2155000000,
      "volume": 1118000,
      "volume24h": 1191000,
      "totalVolume24h": 155298000,
      "circulatingSupply": 25927000000
    },
    {
      "ID": 205,
      "dateCreated": "2019-04-13 00:00:14",
      "price": 0.0839,
      "change": 0.0008,
      "pChange": 0.99,
      "marketCap": 2177000000,
      "volume": 530369,
      "volume24h": 530370,
      "totalVolume24h": 107097000,
      "circulatingSupply": 25927000000
    },
    {
      "ID": 206,
      "dateCreated": "2019-04-14 00:00:34",
      "price": 0.0835,
      "change": 0,
      "pChange": 0,
      "marketCap": 2165000000,
      "volume": 0,
      "volume24h": 357387,
      "totalVolume24h": 70933000,
      "circulatingSupply": 25927000000
    },
    {
      "ID": 207,
      "dateCreated": "2019-04-15 00:00:37",
      "price": 0.0849,
      "change": 0,
      "pChange": 0.04,
      "marketCap": 2201000000,
      "volume": 0,
      "volume24h": 198030,
      "totalVolume24h": 78700000,
      "circulatingSupply": 25927000000
    },
    {
      "ID": 208,
      "dateCreated": "2019-04-16 00:00:18",
      "price": 0.0822,
      "change": -0.0024,
      "pChange": -2.79,
      "marketCap": 2130000000,
      "volume": 625631,
      "volume24h": 627976,
      "totalVolume24h": 73152000,
      "circulatingSupply": 25927000000
    },
    {
      "ID": 209,
      "dateCreated": "2019-04-17 00:00:37",
      "price": 0.0834,
      "change": 0,
      "pChange": 0,
      "marketCap": 2163000000,
      "volume": 0,
      "volume24h": 452155,
      "totalVolume24h": 62945000,
      "circulatingSupply": 25927000000
    },
    {
      "ID": 210,
      "dateCreated": "2019-04-18 00:00:14",
      "price": 0.0828,
      "change": 0,
      "pChange": 0,
      "marketCap": 2148000000,
      "volume": 0,
      "volume24h": 450192,
      "totalVolume24h": 58559000,
      "circulatingSupply": 25927000000
    },
    {
      "ID": 211,
      "dateCreated": "2019-04-19 00:00:36",
      "price": 0.0816,
      "change": 0,
      "pChange": 0,
      "marketCap": 2117000000,
      "volume": 0,
      "volume24h": 306894,
      "totalVolume24h": 64950000,
      "circulatingSupply": 25927000000
    },
    {
      "ID": 212,
      "dateCreated": "2019-04-20 00:00:31",
      "price": 0.0793,
      "change": 0,
      "pChange": 0,
      "marketCap": 2055000000.0000002,
      "volume": 0,
      "volume24h": 680164,
      "totalVolume24h": 75986000,
      "circulatingSupply": 25927000000
    },
    {
      "ID": 213,
      "dateCreated": "2019-04-21 00:00:07",
      "price": 0.0762,
      "change": -0.0031,
      "pChange": -3.86,
      "marketCap": 1975000000,
      "volume": 994000,
      "volume24h": 1002000,
      "totalVolume24h": 74017000,
      "circulatingSupply": 25927000000
    },
    {
      "ID": 214,
      "dateCreated": "2019-04-22 00:00:31",
      "price": 0.074,
      "change": 0,
      "pChange": 0.01,
      "marketCap": 1919000000,
      "volume": 0,
      "volume24h": 558129,
      "totalVolume24h": 78339000,
      "circulatingSupply": 25927000000
    },
    {
      "ID": 215,
      "dateCreated": "2019-04-23 00:00:08",
      "price": 0.078,
      "change": 0.004,
      "pChange": 5.42,
      "marketCap": 2023000000.0000002,
      "volume": 641467,
      "volume24h": 641588,
      "totalVolume24h": 90426000,
      "circulatingSupply": 25927000000
    },
    {
      "ID": 216,
      "dateCreated": "2019-04-24 00:00:28",
      "price": 0.0741,
      "change": 0,
      "pChange": 0,
      "marketCap": 1922000000,
      "volume": 0,
      "volume24h": 474654,
      "totalVolume24h": 91291000,
      "circulatingSupply": 25927000000
    },
    {
      "ID": 217,
      "dateCreated": "2019-04-25 00:00:09",
      "price": 0.0724,
      "change": -0.0017,
      "pChange": -2.35,
      "marketCap": 1877000000,
      "volume": 980539,
      "volume24h": 980997,
      "totalVolume24h": 89764000,
      "circulatingSupply": 25927000000
    },
    {
      "ID": 218,
      "dateCreated": "2019-04-26 00:00:29",
      "price": 0.0684,
      "change": 0,
      "pChange": 0,
      "marketCap": 1774000000,
      "volume": 0,
      "volume24h": 1049000,
      "totalVolume24h": 88036000,
      "circulatingSupply": 25927000000
    },
    {
      "ID": 219,
      "dateCreated": "2019-04-27 00:00:10",
      "price": 0.068,
      "change": -0.0004,
      "pChange": -0.58,
      "marketCap": 1764000000,
      "volume": 681892,
      "volume24h": 681999,
      "totalVolume24h": 74568000,
      "circulatingSupply": 25927000000
    },
    {
      "ID": 220,
      "dateCreated": "2019-04-28 00:00:08",
      "price": 0.0693,
      "change": 0.0013,
      "pChange": 1.87,
      "marketCap": 1797000000,
      "volume": 243107,
      "volume24h": 243122,
      "totalVolume24h": 45531000,
      "circulatingSupply": 25927000000
    },
    {
      "ID": 221,
      "dateCreated": "2019-04-29 00:00:27",
      "price": 0.0691,
      "change": 0,
      "pChange": 0,
      "marketCap": 1792000000,
      "volume": 0,
      "volume24h": 123247,
      "totalVolume24h": 38313000,
      "circulatingSupply": 25927000000
    },
    {
      "ID": 222,
      "dateCreated": "2019-04-30 00:00:38",
      "price": 0.0637,
      "change": 0,
      "pChange": 0.06,
      "marketCap": 1651000000,
      "volume": 136,
      "volume24h": 340317,
      "totalVolume24h": 57627000,
      "circulatingSupply": 25927000000
    },
    {
      "ID": 223,
      "dateCreated": "2019-05-01 00:00:21",
      "price": 0.0695,
      "change": 0,
      "pChange": 0,
      "marketCap": 1802000000,
      "volume": 0,
      "volume24h": 354306,
      "totalVolume24h": 57714000,
      "circulatingSupply": 25927000000
    },
    {
      "ID": 224,
      "dateCreated": "2019-05-02 00:00:38",
      "price": 0.0681,
      "change": 0,
      "pChange": 0.03,
      "marketCap": 1767000000,
      "volume": 0,
      "volume24h": 338386,
      "totalVolume24h": 48563000,
      "circulatingSupply": 25927000000
    },
    {
      "ID": 225,
      "dateCreated": "2019-05-03 00:00:18",
      "price": 0.0674,
      "change": -0.0007,
      "pChange": -1.07,
      "marketCap": 1747000000,
      "volume": 267855,
      "volume24h": 267869,
      "totalVolume24h": 47989000,
      "circulatingSupply": 25927000000
    },
    {
      "ID": 226,
      "dateCreated": "2019-05-04 00:00:17",
      "price": 0.0688,
      "change": 0,
      "pChange": 0,
      "marketCap": 1784000000,
      "volume": 0,
      "volume24h": 901110,
      "totalVolume24h": 69817000,
      "circulatingSupply": 25927000000
    },
    {
      "ID": 227,
      "dateCreated": "2019-05-05 00:00:08",
      "price": 0.0663,
      "change": -0.0026,
      "pChange": -3.71,
      "marketCap": 1718000000,
      "volume": 846008,
      "volume24h": 844971,
      "totalVolume24h": 69357000,
      "circulatingSupply": 25927000000
    },
    {
      "ID": 228,
      "dateCreated": "2019-05-06 00:00:22",
      "price": 0.0656,
      "change": -0.0007,
      "pChange": -1.06,
      "marketCap": 1700000000,
      "volume": 275696,
      "volume24h": 275696,
      "totalVolume24h": 41759000,
      "circulatingSupply": 25927000000
    },
    {
      "ID": 229,
      "dateCreated": "2019-05-07 00:00:08",
      "price": 0.0661,
      "change": 0.0005,
      "pChange": 0.84,
      "marketCap": 1714000000,
      "volume": 497359,
      "volume24h": 497625,
      "totalVolume24h": 57187000,
      "circulatingSupply": 25927000000
    },
    {
      "ID": 230,
      "dateCreated": "2019-05-08 00:00:12",
      "price": 0.0631,
      "change": -0.003,
      "pChange": -4.57,
      "marketCap": 1636000000,
      "volume": 548555,
      "volume24h": 552032,
      "totalVolume24h": 49208000,
      "circulatingSupply": 25927000000
    },
    {
      "ID": 231,
      "dateCreated": "2019-05-09 00:00:34",
      "price": 0.064,
      "change": 0,
      "pChange": 0,
      "marketCap": 1660000000,
      "volume": 0,
      "volume24h": 232903,
      "totalVolume24h": 33537000,
      "circulatingSupply": 25927000000
    },
    {
      "ID": 232,
      "dateCreated": "2019-05-10 00:00:10",
      "price": 0.0613,
      "change": -0.0027,
      "pChange": -4.23,
      "marketCap": 1590000000,
      "volume": 514772,
      "volume24h": 514682,
      "totalVolume24h": 56520000,
      "circulatingSupply": 25927000000
    },
    {
      "ID": 233,
      "dateCreated": "2019-05-11 00:00:09",
      "price": 0.063,
      "change": 0.0017,
      "pChange": 2.77,
      "marketCap": 1634000000,
      "volume": 676744,
      "volume24h": 676674,
      "totalVolume24h": 83334000,
      "circulatingSupply": 25927000000
    },
    {
      "ID": 234,
      "dateCreated": "2019-05-12 00:00:30",
      "price": 0.0753,
      "change": -0.0005,
      "pChange": -0.73,
      "marketCap": 1952000000,
      "volume": 167,
      "volume24h": 2334000,
      "totalVolume24h": 191304000,
      "circulatingSupply": 25927000000
    },
    {
      "ID": 235,
      "dateCreated": "2019-05-13 00:00:07",
      "price": 0.0704,
      "change": -0.0054,
      "pChange": -7.17,
      "marketCap": 1825000000,
      "volume": 1879000,
      "volume24h": 1903000,
      "totalVolume24h": 135291000,
      "circulatingSupply": 25927000000
    },
    {
      "ID": 236,
      "dateCreated": "2019-05-14 00:00:31",
      "price": 0.073,
      "change": 0.0003,
      "pChange": 0.36,
      "marketCap": 1893000000,
      "volume": 190,
      "volume24h": 1253000,
      "totalVolume24h": 110549000,
      "circulatingSupply": 25927000000
    },
    {
      "ID": 237,
      "dateCreated": "2019-05-15 00:00:13",
      "price": 0.0848,
      "change": 0.0121,
      "pChange": 16.58,
      "marketCap": 2199000000,
      "volume": 1999000,
      "volume24h": 1998000,
      "totalVolume24h": 175424000,
      "circulatingSupply": 25927000000
    },
    {
      "ID": 238,
      "dateCreated": "2019-05-16 00:00:23",
      "price": 0.0941,
      "change": 0,
      "pChange": 0,
      "marketCap": 2439000000,
      "volume": 0,
      "volume24h": 2285000,
      "totalVolume24h": 174038000,
      "circulatingSupply": 25927000000
    },
    {
      "ID": 239,
      "dateCreated": "2019-05-17 00:00:17",
      "price": 0.0877,
      "change": -0.0064,
      "pChange": -6.83,
      "marketCap": 2273000000,
      "volume": 3181000,
      "volume24h": 3199000,
      "totalVolume24h": 216685000,
      "circulatingSupply": 25927000000
    },
    {
      "ID": 240,
      "dateCreated": "2019-05-18 00:00:12",
      "price": 0.0833,
      "change": -0.0044,
      "pChange": -5.03,
      "marketCap": 2158000000,
      "volume": 3297000,
      "volume24h": 3369000,
      "totalVolume24h": 189030000,
      "circulatingSupply": 25927000000
    },
    {
      "ID": 241,
      "dateCreated": "2019-05-19 00:00:10",
      "price": 0.0784,
      "change": -0.0049,
      "pChange": -5.89,
      "marketCap": 2031000000.0000002,
      "volume": 938790,
      "volume24h": 938787,
      "totalVolume24h": 105985000,
      "circulatingSupply": 25927000000
    },
    {
      "ID": 242,
      "dateCreated": "2019-05-20 00:00:07",
      "price": 0.0869,
      "change": 0.0086,
      "pChange": 10.95,
      "marketCap": 2254000000,
      "volume": 1402000,
      "volume24h": 1403000,
      "totalVolume24h": 140675000,
      "circulatingSupply": 25927000000
    },
    {
      "ID": 243,
      "dateCreated": "2019-05-21 00:00:20",
      "price": 0.0845,
      "change": -0.0001,
      "pChange": -0.09,
      "marketCap": 2192000000,
      "volume": 0,
      "volume24h": 907421,
      "totalVolume24h": 118333000,
      "circulatingSupply": 25927000000
    },
    {
      "ID": 244,
      "dateCreated": "2019-05-22 00:00:32",
      "price": 0.0845,
      "change": 0,
      "pChange": 0.01,
      "marketCap": 2191000000,
      "volume": 0,
      "volume24h": 594483,
      "totalVolume24h": 84029000,
      "circulatingSupply": 25927000000
    },
    {
      "ID": 245,
      "dateCreated": "2019-05-23 00:00:12",
      "price": 0.0774,
      "change": -0.0071,
      "pChange": -8.45,
      "marketCap": 2005999999.9999998,
      "volume": 1161000,
      "volume24h": 1161000,
      "totalVolume24h": 114814000,
      "circulatingSupply": 25927000000
    },
    {
      "ID": 246,
      "dateCreated": "2019-05-24 00:00:35",
      "price": 0.0807,
      "change": 0,
      "pChange": 0,
      "marketCap": 2092000000,
      "volume": 0,
      "volume24h": 577335,
      "totalVolume24h": 86503000,
      "circulatingSupply": 25927000000
    },
    {
      "ID": 247,
      "dateCreated": "2019-05-25 00:00:29",
      "price": 0.081,
      "change": 0,
      "pChange": -0.02,
      "marketCap": 2099000000.0000002,
      "volume": 298,
      "volume24h": 1006999.9999999999,
      "totalVolume24h": 88866000,
      "circulatingSupply": 25927000000
    },
    {
      "ID": 248,
      "dateCreated": "2019-05-26 00:00:09",
      "price": 0.08,
      "change": -0.001,
      "pChange": -1.23,
      "marketCap": 2073999999.9999998,
      "volume": 292209,
      "volume24h": 291928,
      "totalVolume24h": 52856000,
      "circulatingSupply": 25927000000
    },
    {
      "ID": 249,
      "dateCreated": "2019-05-27 00:00:13",
      "price": 0.0861,
      "change": 0.0061,
      "pChange": 7.65,
      "marketCap": 2232000000,
      "volume": 888115,
      "volume24h": 975243,
      "totalVolume24h": 100770000,
      "circulatingSupply": 25927000000
    },
    {
      "ID": 250,
      "dateCreated": "2019-05-28 00:00:32",
      "price": 0.0909,
      "change": -0.0002,
      "pChange": -0.18,
      "marketCap": 2356000000,
      "volume": 0,
      "volume24h": 1230000,
      "totalVolume24h": 143587000,
      "circulatingSupply": 25927000000
    },
    {
      "ID": 251,
      "dateCreated": "2019-05-29 00:00:15",
      "price": 0.0929,
      "change": 0,
      "pChange": 0.02,
      "marketCap": 2409000000,
      "volume": 0,
      "volume24h": 1153000,
      "totalVolume24h": 140741000,
      "circulatingSupply": 25927000000
    },
    {
      "ID": 252,
      "dateCreated": "2019-06-04 00:50:01",
      "price": 0.0866,
      "change": -0.0012,
      "pChange": -1.32,
      "marketCap": 2244000000,
      "volume": 496089,
      "volume24h": 2106000,
      "totalVolume24h": 191581000,
      "circulatingSupply": 25927000000
    },
    {
      "ID": 253,
      "dateCreated": "2019-06-05 00:00:15",
      "price": 0.0822,
      "change": 0,
      "pChange": 0,
      "marketCap": 2132000000,
      "volume": 0,
      "volume24h": 1840000,
      "totalVolume24h": 139833000,
      "circulatingSupply": 25927000000
    },
    {
      "ID": 254,
      "dateCreated": "2019-06-06 00:00:13",
      "price": 0.0828,
      "change": 0.0006,
      "pChange": 0.71,
      "marketCap": 2146999999.9999998,
      "volume": 854080,
      "volume24h": 854173,
      "totalVolume24h": 96089000,
      "circulatingSupply": 25927000000
    },
    {
      "ID": 255,
      "dateCreated": "2019-06-07 00:00:32",
      "price": 0.083,
      "change": 0,
      "pChange": 0,
      "marketCap": 2151000000,
      "volume": 0,
      "volume24h": 509286,
      "totalVolume24h": 128320000,
      "circulatingSupply": 25927000000
    },
    {
      "ID": 256,
      "dateCreated": "2019-06-08 00:00:14",
      "price": 0.0854,
      "change": 0.0025,
      "pChange": 2.95,
      "marketCap": 2215000000,
      "volume": 735551,
      "volume24h": 735835,
      "totalVolume24h": 118810000,
      "circulatingSupply": 25927000000
    },
    {
      "ID": 257,
      "dateCreated": "2019-06-09 00:00:10",
      "price": 0.0838,
      "change": -0.0016,
      "pChange": -1.84,
      "marketCap": 2174000000,
      "volume": 272638,
      "volume24h": 272640,
      "totalVolume24h": 107205000,
      "circulatingSupply": 25927000000
    },
    {
      "ID": 258,
      "dateCreated": "2019-06-10 00:00:14",
      "price": 0.0791,
      "change": 0,
      "pChange": 0,
      "marketCap": 2051000000.0000002,
      "volume": 0,
      "volume24h": 1004000,
      "totalVolume24h": 98237000,
      "circulatingSupply": 25927000000
    },
    {
      "ID": 259,
      "dateCreated": "2019-06-11 00:00:09",
      "price": 0.0855,
      "change": 0.0064,
      "pChange": 8.12,
      "marketCap": 2217000000,
      "volume": 728402,
      "volume24h": 728402,
      "totalVolume24h": 116855000,
      "circulatingSupply": 25927000000
    },
    {
      "ID": 260,
      "dateCreated": "2019-06-12 00:00:36",
      "price": 0.0881,
      "change": 0,
      "pChange": 0,
      "marketCap": 2283000000,
      "volume": 0,
      "volume24h": 927809,
      "totalVolume24h": 125422000,
      "circulatingSupply": 25927000000
    },
    {
      "ID": 261,
      "dateCreated": "2019-06-13 00:00:12",
      "price": 0.0965,
      "change": 0,
      "pChange": 0,
      "marketCap": 2501000000,
      "volume": 0,
      "volume24h": 1866000,
      "totalVolume24h": 218611000,
      "circulatingSupply": 25927000000
    },
    {
      "ID": 262,
      "dateCreated": "2019-06-14 00:00:32",
      "price": 0.0895,
      "change": 0,
      "pChange": 0,
      "marketCap": 2319000000,
      "volume": 0,
      "volume24h": 1189000,
      "totalVolume24h": 168439000,
      "circulatingSupply": 25927000000
    },
    {
      "ID": 263,
      "dateCreated": "2019-06-15 00:00:32",
      "price": 0.0905,
      "change": 0,
      "pChange": 0,
      "marketCap": 2346000000,
      "volume": 0,
      "volume24h": 1483000,
      "totalVolume24h": 155974000,
      "circulatingSupply": 25927000000
    },
    {
      "ID": 264,
      "dateCreated": "2019-06-16 00:00:11",
      "price": 0.0914,
      "change": 0.001,
      "pChange": 1.06,
      "marketCap": 2371000000,
      "volume": 667700,
      "volume24h": 667786,
      "totalVolume24h": 128451000,
      "circulatingSupply": 25927000000
    },
    {
      "ID": 265,
      "dateCreated": "2019-06-17 00:00:29",
      "price": 0.0921,
      "change": 0,
      "pChange": 0,
      "marketCap": 2387000000,
      "volume": 0,
      "volume24h": 1330000,
      "totalVolume24h": 145661000,
      "circulatingSupply": 25927000000
    },
    {
      "ID": 266,
      "dateCreated": "2019-06-18 00:00:16",
      "price": 0.0934,
      "change": 0.0013,
      "pChange": 1.4,
      "marketCap": 2421000000,
      "volume": 773424,
      "volume24h": 773424,
      "totalVolume24h": 129901000.00000001,
      "circulatingSupply": 25927000000
    },
    {
      "ID": 267,
      "dateCreated": "2019-06-19 00:00:31",
      "price": 0.0887,
      "change": 0,
      "pChange": 0,
      "marketCap": 2301000000,
      "volume": 0,
      "volume24h": 886755,
      "totalVolume24h": 111746000,
      "circulatingSupply": 25927000000
    },
    {
      "ID": 268,
      "dateCreated": "2019-06-20 00:00:08",
      "price": 0.0897,
      "change": 0.001,
      "pChange": 1.09,
      "marketCap": 2326000000,
      "volume": 359437,
      "volume24h": 359931,
      "totalVolume24h": 96864000,
      "circulatingSupply": 25927000000
    },
    {
      "ID": 269,
      "dateCreated": "2019-06-21 00:00:31",
      "price": 0.0874,
      "change": 0,
      "pChange": -0.05,
      "marketCap": 2266000000,
      "volume": 0,
      "volume24h": 914055,
      "totalVolume24h": 138098000,
      "circulatingSupply": 25927000000
    },
    {
      "ID": 270,
      "dateCreated": "2019-06-22 00:00:29",
      "price": 0.0896,
      "change": 0,
      "pChange": 0,
      "marketCap": 2324000000,
      "volume": 0,
      "volume24h": 762760,
      "totalVolume24h": 92077000,
      "circulatingSupply": 25927000000
    },
    {
      "ID": 271,
      "dateCreated": "2019-06-23 00:00:19",
      "price": 0.0938,
      "change": 0,
      "pChange": 0,
      "marketCap": 2432000000,
      "volume": 0,
      "volume24h": 2526000,
      "totalVolume24h": 195848000,
      "circulatingSupply": 25927000000
    },
    {
      "ID": 272,
      "dateCreated": "2019-06-24 00:00:27",
      "price": 0.0961,
      "change": 0.0002,
      "pChange": 0.17,
      "marketCap": 2491000000,
      "volume": 253,
      "volume24h": 2217000,
      "totalVolume24h": 179993000,
      "circulatingSupply": 25927000000
    },
    {
      "ID": 273,
      "dateCreated": "2019-06-25 00:00:21",
      "price": 0.0976,
      "change": 0.0017,
      "pChange": 1.73,
      "marketCap": 2529000000,
      "volume": 1012999.9999999999,
      "volume24h": 1016000,
      "totalVolume24h": 92771000,
      "circulatingSupply": 25927000000
    },
    {
      "ID": 274,
      "dateCreated": "2019-06-26 00:00:26",
      "price": 0.096,
      "change": 0.0002,
      "pChange": 0.21,
      "marketCap": 2488000000,
      "volume": 601,
      "volume24h": 1101000,
      "totalVolume24h": 153936000,
      "circulatingSupply": 25927000000
    },
    {
      "ID": 275,
      "dateCreated": "2019-06-27 00:00:33",
      "price": 0.0967,
      "change": 0.0006,
      "pChange": 0.62,
      "marketCap": 2506000000,
      "volume": 3139,
      "volume24h": 4194000,
      "totalVolume24h": 296635000,
      "circulatingSupply": 25927000000
    },
    {
      "ID": 276,
      "dateCreated": "2019-06-28 13:10:11",
      "price": 0.0853,
      "change": 0.0003,
      "pChange": 0.39,
      "marketCap": 2212000000,
      "volume": 1034999.9999999999,
      "volume24h": 2950000,
      "totalVolume24h": 160649000,
      "circulatingSupply": 25927000000
    },
    {
      "ID": 277,
      "dateCreated": "2019-06-29 00:00:13",
      "price": 0.0885,
      "change": 0,
      "pChange": 0,
      "marketCap": 2296000000,
      "volume": 0,
      "volume24h": 1572000,
      "totalVolume24h": 149161000,
      "circulatingSupply": 25927000000
    },
    {
      "ID": 278,
      "dateCreated": "2019-06-30 00:00:12",
      "price": 0.0895,
      "change": 0,
      "pChange": 0,
      "marketCap": 2320000000,
      "volume": 0,
      "volume24h": 1225000,
      "totalVolume24h": 141374000,
      "circulatingSupply": 25927000000
    },
    {
      "ID": 279,
      "dateCreated": "2019-07-01 00:00:12",
      "price": 0.082,
      "change": 0,
      "pChange": 0,
      "marketCap": 2126000000,
      "volume": 0,
      "volume24h": 1146000,
      "totalVolume24h": 123510000,
      "circulatingSupply": 25927000000
    },
    {
      "ID": 280,
      "dateCreated": "2019-07-02 00:00:12",
      "price": 0.0831,
      "change": 0.0011,
      "pChange": 1.35,
      "marketCap": 2155000000,
      "volume": 871653,
      "volume24h": 871653,
      "totalVolume24h": 131054000,
      "circulatingSupply": 25927000000
    },
    {
      "ID": 281,
      "dateCreated": "2019-07-03 00:00:13",
      "price": 0.0805,
      "change": -0.0026,
      "pChange": -3.08,
      "marketCap": 2088000000,
      "volume": 1326000,
      "volume24h": 1328000,
      "totalVolume24h": 141341000,
      "circulatingSupply": 25927000000
    },
    {
      "ID": 282,
      "dateCreated": "2019-07-04 00:00:12",
      "price": 0.0827,
      "change": 0.0022,
      "pChange": 2.68,
      "marketCap": 2144000000.0000002,
      "volume": 850238,
      "volume24h": 850238,
      "totalVolume24h": 126533000,
      "circulatingSupply": 25927000000
    },
    {
      "ID": 283,
      "dateCreated": "2019-07-05 00:00:10",
      "price": 0.0775,
      "change": 0,
      "pChange": 0,
      "marketCap": 2009000000,
      "volume": 0,
      "volume24h": 625265,
      "totalVolume24h": 121288000,
      "circulatingSupply": 25927000000
    },
    {
      "ID": 284,
      "dateCreated": "2019-07-06 00:00:09",
      "price": 0.0765,
      "change": -0.001,
      "pChange": -1.28,
      "marketCap": 1983000000,
      "volume": 435074,
      "volume24h": 434957,
      "totalVolume24h": 97024000,
      "circulatingSupply": 25927000000
    },
    {
      "ID": 285,
      "dateCreated": "2019-07-07 00:00:13",
      "price": 0.0773,
      "change": 0.0008,
      "pChange": 1.03,
      "marketCap": 2004000000,
      "volume": 280724,
      "volume24h": 287692,
      "totalVolume24h": 108482000,
      "circulatingSupply": 25927000000
    },
    {
      "ID": 286,
      "dateCreated": "2019-07-08 00:00:06",
      "price": 0.0801,
      "change": 0.0029,
      "pChange": 3.69,
      "marketCap": 2077999999.9999998,
      "volume": 403578,
      "volume24h": 404279,
      "totalVolume24h": 89669000,
      "circulatingSupply": 25927000000
    },
    {
      "ID": 287,
      "dateCreated": "2019-07-09 00:00:12",
      "price": 0.0802,
      "change": 0.0001,
      "pChange": 0.11,
      "marketCap": 2080000000,
      "volume": 982313,
      "volume24h": 997960,
      "totalVolume24h": 95545000,
      "circulatingSupply": 25927000000
    },
    {
      "ID": 288,
      "dateCreated": "2019-07-10 00:00:13",
      "price": 0.0781,
      "change": 0,
      "pChange": 0,
      "marketCap": 2025999999.9999998,
      "volume": 0,
      "volume24h": 961701,
      "totalVolume24h": 99786000,
      "circulatingSupply": 25927000000
    },
    {
      "ID": 289,
      "dateCreated": "2019-07-11 00:00:12",
      "price": 0.0716,
      "change": -0.0066,
      "pChange": -8.4,
      "marketCap": 1856000000,
      "volume": 1446000,
      "volume24h": 1474000,
      "totalVolume24h": 96745000,
      "circulatingSupply": 25927000000
    },
    {
      "ID": 290,
      "dateCreated": "2019-07-12 00:00:12",
      "price": 0.0649,
      "change": -0.0067,
      "pChange": -9.34,
      "marketCap": 1683000000,
      "volume": 1140000,
      "volume24h": 1197000,
      "totalVolume24h": 92471000,
      "circulatingSupply": 25927000000
    },
    {
      "ID": 291,
      "dateCreated": "2019-07-13 00:00:12",
      "price": 0.0696,
      "change": 0.0047,
      "pChange": 7.23,
      "marketCap": 1804000000,
      "volume": 527270,
      "volume24h": 527245,
      "totalVolume24h": 100427000,
      "circulatingSupply": 25927000000
    },
    {
      "ID": 292,
      "dateCreated": "2019-07-14 00:00:13",
      "price": 0.0667,
      "change": -0.0029,
      "pChange": -4.2,
      "marketCap": 1729000000,
      "volume": 443055,
      "volume24h": 443055,
      "totalVolume24h": 83598000,
      "circulatingSupply": 25927000000
    },
    {
      "ID": 293,
      "dateCreated": "2019-07-15 00:00:12",
      "price": 0.0592,
      "change": -0.0075,
      "pChange": -11.23,
      "marketCap": 1534000000,
      "volume": 656170,
      "volume24h": 668141,
      "totalVolume24h": 79618000,
      "circulatingSupply": 25927000000
    },
    {
      "ID": 294,
      "dateCreated": "2019-07-16 00:00:12",
      "price": 0.0593,
      "change": 0,
      "pChange": 0.05,
      "marketCap": 1536000000,
      "volume": 0,
      "volume24h": 644863,
      "totalVolume24h": 88042000,
      "circulatingSupply": 25927000000
    },
    {
      "ID": 295,
      "dateCreated": "2019-07-17 00:00:12",
      "price": 0.0519,
      "change": 0,
      "pChange": 0,
      "marketCap": 1345000000,
      "volume": 0,
      "volume24h": 1038999.9999999999,
      "totalVolume24h": 86490000,
      "circulatingSupply": 25927000000
    },
    {
      "ID": 296,
      "dateCreated": "2019-07-18 00:00:06",
      "price": 0.0551,
      "change": 0.0033,
      "pChange": 6.3,
      "marketCap": 1430000000,
      "volume": 750639,
      "volume24h": 750564,
      "totalVolume24h": 82144000,
      "circulatingSupply": 25927000000
    },
    {
      "ID": 297,
      "dateCreated": "2019-07-19 00:00:12",
      "price": 0.0587,
      "change": 0,
      "pChange": 0,
      "marketCap": 1522000000,
      "volume": 0,
      "volume24h": 587017,
      "totalVolume24h": 70179000,
      "circulatingSupply": 25927000000
    },
    {
      "ID": 298,
      "dateCreated": "2019-07-20 00:00:05",
      "price": 0.06,
      "change": 0.0012,
      "pChange": 2.13,
      "marketCap": 1555000000,
      "volume": 347864,
      "volume24h": 348246,
      "totalVolume24h": 54582000,
      "circulatingSupply": 25927000000
    },
    {
      "ID": 299,
      "dateCreated": "2019-07-21 00:00:12",
      "price": 0.0628,
      "change": 0,
      "pChange": 0,
      "marketCap": 1629000000,
      "volume": 0,
      "volume24h": 566909,
      "totalVolume24h": 59361000,
      "circulatingSupply": 25927000000
    },
    {
      "ID": 300,
      "dateCreated": "2019-07-22 00:00:12",
      "price": 0.0611,
      "change": -0.0017,
      "pChange": -2.69,
      "marketCap": 1585000000,
      "volume": 421584,
      "volume24h": 421529,
      "totalVolume24h": 45893000,
      "circulatingSupply": 25927000000
    },
    {
      "ID": 301,
      "dateCreated": "2019-07-23 00:00:12",
      "price": 0.0596,
      "change": -0.0015,
      "pChange": -2.5,
      "marketCap": 1545000000,
      "volume": 352718,
      "volume24h": 353864,
      "totalVolume24h": 46113000,
      "circulatingSupply": 25927000000
    },
    {
      "ID": 302,
      "dateCreated": "2019-07-24 00:00:12",
      "price": 0.0558,
      "change": -0.0038,
      "pChange": -6.36,
      "marketCap": 1447000000,
      "volume": 394070,
      "volume24h": 394055,
      "totalVolume24h": 50309000,
      "circulatingSupply": 25927000000
    },
    {
      "ID": 303,
      "dateCreated": "2019-07-25 00:00:12",
      "price": 0.0589,
      "change": 0.003,
      "pChange": 5.47,
      "marketCap": 1526000000,
      "volume": 305802,
      "volume24h": 305803,
      "totalVolume24h": 55700000,
      "circulatingSupply": 25927000000
    },
    {
      "ID": 304,
      "dateCreated": "2019-07-26 00:00:12",
      "price": 0.0589,
      "change": 0,
      "pChange": 0.07,
      "marketCap": 1527000000,
      "volume": 224784,
      "volume24h": 217083,
      "totalVolume24h": 35049000,
      "circulatingSupply": 25927000000
    }
  ]
}